…
Let’s start with a for loop.

``` r
output = vector("list", length = 100)

for (i in 1:100) {
  
  output[[i]] = sim_mean_sd(samp_size = 30)
  
}

bind_rows(output)
```

    ## # A tibble: 100 × 2
    ##     mean    sd
    ##    <dbl> <dbl>
    ##  1  3.37  4.93
    ##  2  2.53  3.52
    ##  3  2.88  4.26
    ##  4  3.05  3.95
    ##  5  3.77  3.81
    ##  6  1.35  4.29
    ##  7  3.10  3.59
    ##  8  2.83  3.84
    ##  9  3.00  4.22
    ## 10  3.31  3.73
    ## # … with 90 more rows
…
